…
``` r
class(dob_kornjaca)
```

    ## [1] "ordered" "factor"

**Drugi način izvlačenja stupaca iz data frame-a**

``` r
ime_kornjaca <- kornjace[,3]
print(ime_kornjaca)
```

    ## # A tibble: 27 × 1
    ##    turtle_name   
    ##    <chr>         
    ##  1 Maksimus      
    ##  2 CC_VIS_2001   
    ##  3 CC_VIS_2002   
    ##  4 CC_VIS_2003   
    ##  5 Valbiska      
    ##  6 FS35          
    ##  7 Apox          
    ##  8 CC_LOŠINJ_2102
    ##  9 Zlata         
    ## 10 Noemi         
    ## # ℹ 17 more rows
…
